<?xml version="1.0" encoding="utf-8"?>
<!-- Generator: Adobe Illustrator 19.2.1, SVG Export Plug-In . SVG Version: 6.00 Build 0)  -->
<svg version="1.1" id="Layer_3" xmlns="http://www.w3.org/2000/svg" xmlns:xlink="http://www.w3.org/1999/xlink" x="0px" y="0px"
	 width="113px" height="130px" viewBox="0 0 113 130" style="enable-background:new 0 0 113 130;" xml:space="preserve">
<style type="text/css">
	.st0{fill:url(#SVGID_1_);}
	.st1{fill:url(#SVGID_2_);}
	.st2{fill:url(#SVGID_3_);}
	.st3{fill:#F1F2F2;}
	.st4{fill:url(#SVGID_4_);}
</style>
<g>
	<linearGradient id="SVGID_1_" gradientUnits="userSpaceOnUse" x1="1" y1="58.8925" x2="99.7778" y2="58.8925">
		<stop  offset="1.500717e-02" style="stop-color:#6B6B6B"/>
		<stop  offset="0.1273" style="stop-color:#5C5C5C"/>
		<stop  offset="0.1645" style="stop-color:#505050"/>
		<stop  offset="0.2232" style="stop-color:#444444"/>
		<stop  offset="0.2812" style="stop-color:#404040"/>
		<stop  offset="0.3267" style="stop-color:#616161"/>
		<stop  offset="0.3956" style="stop-color:#8D8D8D"/>
		<stop  offset="0.4491" style="stop-color:#A8A8A8"/>
		<stop  offset="0.4804" style="stop-color:#B3B3B3"/>
		<stop  offset="0.5807" style="stop-color:#A8A8A8"/>
		<stop  offset="0.5865" style="stop-color:#A4A4A4"/>
		<stop  offset="0.6542" style="stop-color:#777777"/>
		<stop  offset="0.7146" style="stop-color:#565656"/>
		<stop  offset="0.7648" style="stop-color:#424242"/>
		<stop  offset="0.7987" style="stop-color:#3B3B3B"/>
		<stop  offset="1" style="stop-color:#737373"/>
	</linearGradient>
	<path class="st0" d="M99.8,51.7c0-27-22.5-49-49.4-49S1,24.7,1,51.7C1,53,1,64.8,1,66.1c0,27,22.5,49,49.4,49s49-21.9,49-49
		C99.4,64.8,99.8,53,99.8,51.7z"/>
	<g>
		<linearGradient id="SVGID_2_" gradientUnits="userSpaceOnUse" x1="1" y1="58.8926" x2="99.8885" y2="58.8926">
			<stop  offset="1.500717e-02" style="stop-color:#6B6B6B"/>
			<stop  offset="0.4804" style="stop-color:#B3B3B3"/>
			<stop  offset="1" style="stop-color:#737373"/>
		</linearGradient>
		<path class="st1" d="M50.1,3c13,0,25.3,5.1,34.7,14.3c9.5,9.3,14.7,21.5,14.7,34.5c0,0.6-0.1,4-0.3,7.2c-0.1,3.4-0.3,6.6-0.3,7.2
			c0,13-5.1,25.2-14.4,34.5c-9.3,9.2-21.5,14.3-34.4,14.3c-13,0-25.2-5.1-34.6-14.3C6.1,91.3,1,79,1,66.1V51.7
			c0-13,5.1-25.2,14.6-34.5C25,8,37.2,3,50.1,3 M50.4,2.7C23.6,2.7,1,24.7,1,51.7C1,53,1,64.8,1,66.1c0,27,22.6,49,49.4,49
			s48.9-21.9,48.9-49c0-1.3,0.6-13.1,0.6-14.4C99.9,24.7,77.2,2.7,50.4,2.7L50.4,2.7z"/>
	</g>
	<linearGradient id="SVGID_3_" gradientUnits="userSpaceOnUse" x1="50.2572" y1="99.6466" x2="50.2572" y2="0.2946">
		<stop  offset="0.1761" style="stop-color:#808080"/>
		<stop  offset="0.2606" style="stop-color:#838383"/>
		<stop  offset="0.3384" style="stop-color:#8E8E8E"/>
		<stop  offset="0.4136" style="stop-color:#A1A1A1"/>
		<stop  offset="0.4873" style="stop-color:#BBBBBB"/>
		<stop  offset="0.5591" style="stop-color:#DDDDDD"/>
		<stop  offset="0.5979" style="stop-color:#F2F2F2"/>
	</linearGradient>
	<ellipse class="st2" cx="50.3" cy="50" rx="49.6" ry="49.7"/>
	<ellipse class="st3" cx="50.3" cy="48.8" rx="47.5" ry="48.3"/>
	<linearGradient id="SVGID_4_" gradientUnits="userSpaceOnUse" x1="50.2572" y1="2.785" x2="50.2572" y2="94.6088">
		<stop  offset="0.2042" style="stop-color:#808080"/>
		<stop  offset="0.5495" style="stop-color:#F2F2F2"/>
	</linearGradient>
	<ellipse class="st4" cx="50.3" cy="48.7" rx="46.3" ry="45.9"/>
</g>
</svg>
